1 10 20
100 200 125
201 210 89
24 4602 238
83 777 171
85 3030 217
52 9513 262
21 8158 262
92 4112 238
53 9900 262
69 5114 238
30 9689 262
32 1007 179
46 7624 262
26 8468 262
55 132 122
8 9488 262
39 5075 238
43 9939 262
90 6415 262
26 692 145
97 2060 182
60 9601 262
11 1630 182
50 4065 238
48 3793 238
72 1339 182
86 2116 182
77 8373 262
14 6016 238
43 5821 238
40 394 144
99 3773 238
38 8263 262
60 8095 262
2 8904 262
16 2888 209
45 5369 238
13 5251 238
33 8814 262
82 1640 182
21 8670 262
33 6052 238
95 1882 182
7 2162 182
17 7283 262
91 6843 262
38 2652 209
65 6014 238
16 3654 217
38 5075 238
49 8673 262
27 6527 262
783 68615 340
606 63015 340
540 83459 351
34 89899 351
107 58749 340
685 14688 276
161 58503 340
23 3179 217
551 54993 340
482 18125 279
540 99467 351
444 96857 351
303 54673 340
53 1306 182
889 57907 340
113 25065 282
21 15948 276
484 11765 268
921 8671 262
774 89243 351
545 96431 351
384 33793 308
457 69676 340
488 95544 351
575 45600 324
476 41502 324
198 3326 217
56 86857 351
594 86906 351
164 34878 311
211 58947 340
967 7926 262
707 55821 340
684 57658 340
79 34688 311
724 29756 308
683 7895 262
416 88137 351
558 53182 340
186 60174 340
69 40948 324
831 58997 340
87 79168 351
751 84768 351
963 65036 340
533 94153 351
921 13478 276
81 6309 262
535 8692 262
905 76223 340
597 32909 308
977 24968 282
953 30877 308
848 85442 351
524 72101 340
261 38152 324
801 78705 351
339 16774 276
765 95031 351
404 90278 351
870 38021 324
270 44316 324
939 59393 340
534 87714 351
194 15288 276
552 54847 340
316 78052 351
971 54683 340
190 32546 308
65 38934 324
627 34877 311
637 5247 238
163 37433 324
589 4385 238
192 83442 351
219 4013 238
80 7441 262
150 9534 262
60 2142 182
436 4730 238
799 6958 262
64 7001 262
446 1221 182
134 685 145
926 8259 262
777 6576 262
811 7165 262
494 7371 262
206 834 171
544 2241 183
101 5547 238
837 3093 217
962 1699 182
862 8593 262
512 6258 262
223 9895 262
323 1604 182
198 9381 262
973 1786 182
11 2764 209
804 6072 238
928 7419 262
285 1315 182
626 2660 209
867 9791 262
850 5218 238
936 8988 262
752 5024 238
376 8421 262
564 4420 238
429 4371 238
773 1654 182
92 652 145
166 6251 262
320 2235 183
686 8406 262
298 5204 238
417 8946 262
293 1977 182
667 810 171
996 5120 238
559 4688 238
585 4009 238
280 8420 262
983 8820 262
4688 559 238
4009 585 238
8420 280 262
8820 983 262
1 1 1
500 500 111
999999 999999 259
1000 1000 112
1001 1001 143
2001 2001 51
1 1000 179
1 1001 179
5600 5900 218
988000 988900 321
