...................
----------------------------------------------------------------------
Ran 19 tests in 0.064s

OK
Name             Stmts   Miss Branch BrPart  Cover   Missing
------------------------------------------------------------
Collatz.py          53      0     16      0   100%
TestCollatz.py      83      0      0      0   100%
------------------------------------------------------------
TOTAL              136      0     16      0   100%
